Influence of Multicollinearity on Measured Impact of Right-to-Carry Gun Laws
…
We can see that there are 3 possible subsets that leave one value out. All 3 possible subsets are created using this method. This method will always create the same number of subsets as there are unique values or rows in the data.

Now we will use this method with the data from our Donohue-like analysis, and since this data has 1395 rows, 1395 subsets will be created that leave out one row. The idea is to fit our panel regression model on each subset of the data, and then examine how the coefficient estimates from each of these model fits vary as the sample changes slightly. With collinear predictors, we expect that our coefficient estimates may be unstable and subject to change under even small perturbations of the data.

First we will create the splits using the loo_cv() function. Notice that since this process involves randomly sampling data points from our data set, we use the set.seed() function to ensure reproducibility of the results.

set.seed(124)
DONOHUE_splits <- d_panel_DONOHUE %>% loo_cv()
DONOHUE_splits

# Leave-one-out cross-validation 
# A tibble: 1,395 x 2
   splits           id        
   <list>           <chr>     
 1 <split [1.4K/1]> Resample1 
 2 <split [1.4K/1]> Resample2 
 3 <split [1.4K/1]> Resample3 
 4 <split [1.4K/1]> Resample4 
 5 <split [1.4K/1]> Resample5 
 6 <split [1.4K/1]> Resample6 
 7 <split [1.4K/1]> Resample7 
 8 <split [1.4K/1]> Resample8 
 9 <split [1.4K/1]> Resample9 
10 <split [1.4K/1]> Resample10
# ... with 1,385 more rows
…
colnames(vif_LOTT) <- c("VIF", "Variable")

Now to have consistent variable names in the VIF data sets we will rename RTC_LAW back to RTC_LAWTRUE using the str_replace() function of the stringr package. This function replaces a pattern.

vif_LOTT %>% mutate(Variable = str_replace(
  string = Variable,
  pattern = "RTC_LAW",
  replacement = "RTC_LAWTRUE"
))

# A tibble: 41 x 2
      VIF Variable                      
    <dbl> <chr>                         
 1   1.62 RTC_LAWTRUE                   
 2 128.   White_Female_10_to_19_years   
 3  42.3  White_Female_20_to_29_years   
 4  49.6  White_Female_30_to_39_years   
 5  37.6  White_Female_40_to_49_years   
 6  36.5  White_Female_50_to_64_years   
 7  12.9  White_Female_65_years_and_over
 8 127.   White_Male_10_to_19_years     
 9  39.2  White_Male_20_to_29_years     
10  73.0  White_Male_30_to_39_years     
# ... with 31 more rows

vif_LOTT

# A tibble: 41 x 2
      VIF Variable                      
    <dbl> <chr>                         
 1   1.62 RTC_LAW                       
 2 128.   White_Female_10_to_19_years   
 3  42.3  White_Female_20_to_29_years   
 4  49.6  White_Female_30_to_39_years   
 5  37.6  White_Female_40_to_49_years   
 6  36.5  White_Female_50_to_64_years   
 7  12.9  White_Female_65_years_and_over
 8 127.   White_Male_10_to_19_years     
 9  39.2  White_Male_20_to_29_years     
10  73.0  White_Male_30_to_39_years     
# ... with 31 more rows
…
